[
  {
    "id": "1",
    "title": "Our Lowest Mortgage Rate of all times",
    "sub_title": "Our most competitive mortgage yet.",
    "body": "Early repayment charges and other fees and charges apply. <br/>YOUR HOME MAY BE REPOSSESSED IF YOU DO NOT KEEP UP REPAYMENTS ON YOUR MORTGAGE.",
    "image": "./assets/product_images/lowest-mortgage-rates.png",
    "actions": [
      {
        "id": "1",
        "title": "Visit this mortgage",
        "type": "url",
        "action": "http://www.ybs.co.uk/mortgages/product.html?id=26511"
      },
      {
        "id": "2",
        "title": "Call Back",
        "type": "callback"
      }
    ],
    "target": [
      {
        "customerId": "s9ux1hkw",
        "memberId": "wdsa7121993",
        "status": "viewed"
      },
      {
        "customerId": "ybb531w8",
        "memberId": "wdsa7121993",
        "status": "viewed"
      },
      {
        "customerId": "bpu06esq",
        "memberId": "wdsa7121993",
        "status": "viewed"
      },
      {
        "customerId": "zji9njan",
        "memberId": "asec7121993",
        "status": "viewed"
      },
      {
        "customerId": "uk5fcgin",
        "memberId": "rwese7121989",
        "status": "delivered"
      },
      {
        "customerId": "invyirhn",
        "memberId": "ecsa711993",
        "status": "delivered"
      },
      {
        "customerId": "nkdb5uqm",
        "memberId": "rweq711994",
        "status": "delivered"
      },
      {
        "customerId": "eeodfgvq",
        "memberId": "dnjn109180",
        "status": "viewed"
      },
      {
        "customerId": "sn58jb9p",
        "memberId": "jdsj301985",
        "status": "viewed"
      },
      {
        "customerId": "vneqcv2d",
        "memberId": "erjj7061990",
        "status": "delivered"
      },
      {
        "customerId": "x2qoctui",
        "memberId": "erxc0509989",
        "status": "delivered"
      }
    ],
    "css": "",
    "new": true,
    "start_date": "2017-03-20",
    "end_date": "2017-10-20",
    "delivered": "1000",
    "viewed": "300",
    "interested": "20"
  },
  {
    "id": "2",
    "title": "GET A NO OBLIGATION ‘YOU CHOOSE’ HOME INSURANCE QUOTE",
    "sub_title": "and you’ll automatically be entered into one of our seven weekly prize draws between 22/05/17 and 09/07/17.",
    "body": "Existing ‘You Choose’ Home Insurance customers are not eligible to enter. Only one entry per household. Terms and conditions apply.",
    "image": "./assets/product_images/hi.jpg",
    "actions": [
      {
        "id": "1",
        "title": "View home insurance",
        "type": "url",
        "action": "http://www.ybs.co.uk/insurance/home/index.html"
      },
      {
        "id": "2",
        "title": "Call to discuss",
        "type": "call",
        "action": "08888888888"
      }
    ],
    "target": [
      {
        "customerId": "s9ux1hkw",
        "memberId": "erxc301994",
        "status": "viewed"
      },
      {
        "customerId": "ybb531w8",
        "memberId": "sqwo808988",
        "status": "viewed"
      },
      {
        "customerId": "bpu06esq",
        "memberId": "dfs301991",
        "status": "viewed"
      },
      {
        "customerId": "zji9njan",
        "memberId": "wosn301972",
        "status": "viewed"
      },
      {
        "customerId": "uk5fcgin",
        "memberId": "wppc30111995",
        "status": "delivered"
      },
      {
        "customerId": "invyirhn",
        "memberId": "wed33011994",
        "status": "delivered"
      },
      {
        "customerId": "nkdb5uqm",
        "memberId": "dnsd05111994",
        "status": "delivered"
      },
      {
        "customerId": "eeodfgvq",
        "memberId": "dsep3011981",
        "status": "viewed"
      },
      {
        "customerId": "sn58jb9p",
        "memberId": "sdke111975",
        "status": "viewed"
      },
      {
        "customerId": "vneqcv2d",
        "memberId": "fdjn309994",
        "status": "delivered"
      },
      {
        "customerId": "x2qoctui",
        "memberId": "qksr3091979",
        "status": "delivered"
      }
    ],
    "css": "",
    "new": true,
    "start_date": "2017-04-01",
    "end_date": "2017-10-31",
    "delivered": "1000",
    "viewed": "600",
    "interested": "100"
  },
  {
    "id": "3",
    "title": "Fixed Rate eBond to 31/05/2018",
    "sub_title": "1.05% gross p.a./AER fixed until 31/05/2018",
    "image": "",
    "body": "",
    "bullets": [
      "Save from £1,000 up to £2 million",
      "Pays a fixed rate of interest",
      "Choose to have your interest paid monthly or annually",
      "Withdrawals and closure are not permitted during the term",
      "No cancellation rights",
      "Open and manage your account online"
    ],
    "actions": [
      {
        "id": "1",
        "title": "Find out more",
        "type": "url",
        "action": "http://www.ybs.co.uk/savings/online/fixed-rate-ebond-12mth.html"
      },
      {
        "id": "2",
        "title": "Branch version",
        "type": "url",
        "action": "http://www.ybs.co.uk/savings/fixed-term/fixed-rate-bond-12mth.html"
      }
    ],
    "target": null,
    "css": "background-color: #deffee",
    "new": true,
    "start_date": "2017-05-15",
    "end_date": "2017-11-30",
    "delivered": "1000",
    "viewed": "700",
    "interested": "300"
  },
  {
    "id": "4",
    "title": "EVEN MORE WAYS TO MANAGE YOUR MONEY",
    "sub_title": "",
    "body": "We’ve improved the way you can manage your accounts online",
    "image": "./assets/product_images/woman-on-laptop-RGB-banner-l-3.jpg",
    "actions": [
      {
        "id": "1",
        "title": "Find out more",
        "type": "url",
        "action": "http://www.ybs.co.uk/help/managing-your-account/index.html"
      }
    ],
    "target": [
      {
        "customerId": "s9ux1hkw",
        "memberId": "ksdf909975",
        "status": "viewed"
      },
      {
        "customerId": "ybb531w8",
        "memberId": "erxc301976",
        "status": "viewed"
      },
      {
        "customerId": "bpu06esq",
        "memberId": "edas301994",
        "status": "viewed"
      },
      {
        "customerId": "zji9njan",
        "memberId": "csdr301996",
        "status": "viewed"
      },
      {
        "customerId": "uk5fcgin",
        "memberId": "kqwc307994",
        "status": "delivered"
      },
      {
        "customerId": "invyirhn",
        "memberId": "qmop306994",
        "status": "delivered"
      },
      {
        "customerId": "nkdb5uqm",
        "memberId": "acxq301956",
        "status": "delivered"
      },
      {
        "customerId": "eeodfgvq",
        "memberId": "xces505994",
        "status": "viewed"
      },
      {
        "customerId": "sn58jb9p",
        "memberId": "dsqw101994",
        "status": "viewed"
      },
      {
        "customerId": "vneqcv2d",
        "memberId": "ceqd3021994",
        "status": "delivered"
      },
      {
        "customerId": "x2qoctui",
        "memberId": "sadc4051994",
        "status": "delivered"
      }
    ],
    "new": true,
    "start_date": "2017-06-01",
    "end_date": "2017-12-31",
    "delivered": "1000",
    "viewed": "450",
    "interested": "224"
  }
]