[
    {
        "id": 1,
        "title": "Bike",
        "amount": "10000.00",
        "date": "1979-10-14",
        "image": null,
        "target_amount": "",
        "directdebit": {
            "account": "34343",
            "date": "2018-04-04"
        },
        "customerId": "bpu06esq"
    },
    {
        "id": 2,
        "title": "Macbook",
        "amount": "14000.00",
        "date": "1979-10-14",
        "image": "assets/goal_images/macbook.jpg",
        "target_amount": "500.00",
        "directdebit": {
            "account": "12345",
            "date": "2018-03-03"
        },
        "customerId": "bpu06esq"
    },
    {
        "id": 3,
        "title": "Bike",
        "amount": "10000.00",
        "date": "1979-10-14",
        "image": null,
        "target_amount": "",
        "directdebit": {
            "account": "34343",
            "date": "2018-04-04"
        },
        "customerId": "1km0z2fg"
    },
    {
        "id": 4,
        "title": "Macbook",
        "amount": "14000.00",
        "date": "1979-10-14",
        "image": "assets/goal_images/macbook.jpg",
        "target_amount": "500.00",
        "directdebit": {
            "account": "12345",
            "date": "2018-03-03"
        },
        "customerId": "1km0z2fg"
    }
]